run #,run date,hostname,physical cores/threads,kernel,time(sec),benchmark
1,2015-09-17 19:46:34,evoarch,2,4.1.6-1-ARCH,7.259241173,make
2,2015-09-17 19:46:53,evoarch,2,4.1.6-1-ARCH,6.037659138,make
3,2015-09-17 19:47:11,evoarch,2,4.1.6-1-ARCH,6.046698005,make
4,2015-09-17 19:47:29,evoarch,2,4.1.6-1-ARCH,6.058559384,make
5,2015-09-17 19:47:47,evoarch,2,4.1.6-1-ARCH,6.037422192,make
6,2015-09-17 19:48:05,evoarch,2,4.1.6-1-ARCH,6.039218894,make
7,2015-09-17 19:48:22,evoarch,2,4.1.6-1-ARCH,6.039773143,make
8,2015-09-17 19:48:40,evoarch,2,4.1.6-1-ARCH,6.054365662,make
9,2015-09-17 19:48:58,evoarch,2,4.1.6-1-ARCH,6.054030245,make
10,2015-09-17 19:49:16,evoarch,2,4.1.6-1-ARCH,6.057527081,make
