run #,run date,hostname,physical cores/threads,kernel,time(sec),benchmark
1,2015-09-16 06:06:39,evoarch,2,4.1.6-1-ARCH,6.151412500,compress
2,2015-09-16 06:06:45,evoarch,2,4.1.6-1-ARCH,5.296207903,compress
3,2015-09-16 06:06:50,evoarch,2,4.1.6-1-ARCH,5.714969739,compress
4,2015-09-16 06:06:56,evoarch,2,4.1.6-1-ARCH,5.668211691,compress
5,2015-09-16 06:07:02,evoarch,2,4.1.6-1-ARCH,5.842660044,compress
6,2015-09-16 06:07:08,evoarch,2,4.1.6-1-ARCH,5.602552954,compress
7,2015-09-16 06:07:13,evoarch,2,4.1.6-1-ARCH,5.582852722,compress
8,2015-09-16 06:07:19,evoarch,2,4.1.6-1-ARCH,5.513774257,compress
9,2015-09-16 06:07:25,evoarch,2,4.1.6-1-ARCH,5.512885303,compress
10,2015-09-16 06:07:30,evoarch,2,4.1.6-1-ARCH,5.525884807,compress
1,2015-09-16 06:08:07,evoarch,3,4.1.6-1-ARCH,8.986152591,make
2,2015-09-16 06:08:26,evoarch,3,4.1.6-1-ARCH,6.662906815,make
3,2015-09-16 06:08:42,evoarch,3,4.1.6-1-ARCH,5.935380229,make
4,2015-09-16 06:08:59,evoarch,3,4.1.6-1-ARCH,6.677813227,make
5,2015-09-16 06:09:15,evoarch,3,4.1.6-1-ARCH,6.038724363,make
6,2015-09-16 06:09:33,evoarch,3,4.1.6-1-ARCH,5.982765540,make
7,2015-09-16 06:09:48,evoarch,3,4.1.6-1-ARCH,5.878530508,make
8,2015-09-16 06:10:08,evoarch,3,4.1.6-1-ARCH,5.981558825,make
9,2015-09-16 06:10:23,evoarch,3,4.1.6-1-ARCH,6.794896386,make
10,2015-09-16 06:10:39,evoarch,3,4.1.6-1-ARCH,5.973708857,make
1,2015-09-16 06:10:48,evoarch,2,4.1.6-1-ARCH,186.352428988,video
2,2015-09-16 06:13:55,evoarch,2,4.1.6-1-ARCH,189.928218849,video
3,2015-09-16 06:17:05,evoarch,2,4.1.6-1-ARCH,196.513671823,video
4,2015-09-16 06:20:21,evoarch,2,4.1.6-1-ARCH,180.549841322,video
5,2015-09-16 06:23:22,evoarch,2,4.1.6-1-ARCH,178.980062989,video
6,2015-09-16 06:26:21,evoarch,2,4.1.6-1-ARCH,189.268098698,video
7,2015-09-16 06:29:30,evoarch,2,4.1.6-1-ARCH,190.382232281,video
8,2015-09-16 06:32:41,evoarch,2,4.1.6-1-ARCH,186.983291360,video
9,2015-09-16 06:35:48,evoarch,2,4.1.6-1-ARCH,178.287907521,video
10,2015-09-16 06:38:46,evoarch,2,4.1.6-1-ARCH,185.481967602,video
